…
``` r
goalie_record <- function(ID){
  goalie_url <- paste0("https://records.nhl.com/site/api/franchise-goalie-records?cayenneExp=franchiseId=", ID)
  get_goalie <- GET(goalie_url)
  txt_goalie <- content(get_goalie, "text")
  json_goalie <- fromJSON(txt_goalie, flatten = TRUE)
  return(as_tibble(json_goalie$data))
}

goalie_record(24)
```

    ## No encoding supplied: defaulting to UTF-8.

    ## # A tibble: 30 x 29
    ##       id activePlayer firstName franchiseId franchiseName gameTypeId gamesPlayed
    ##    <int> <lgl>        <chr>           <int> <chr>              <int>       <int>
    ##  1   241 FALSE        Olie               24 Washington C~          2         711
    ##  2   326 TRUE         Braden             24 Washington C~          2         468
    ##  3   339 FALSE        Don                24 Washington C~          2         269
    ##  4   357 FALSE        Craig              24 Washington C~          2          47
    ##  5   468 FALSE        Gary               24 Washington C~          2          54
    ##  6   489 FALSE        Mike               24 Washington C~          2          64
    ##  7   494 FALSE        Ron                24 Washington C~          2         145
    ##  8   498 FALSE        Clint              24 Washington C~          2          96
    ##  9   564 FALSE        Roger              24 Washington C~          2           3
    ## 10   648 FALSE        Mike               24 Washington C~          2          60
    ## # ... with 20 more rows, and 22 more variables: lastName <chr>, losses <int>,
    ## #   mostGoalsAgainstDates <chr>, mostGoalsAgainstOneGame <int>,
    ## #   mostSavesDates <chr>, mostSavesOneGame <int>, mostShotsAgainstDates <chr>,
    ## #   mostShotsAgainstOneGame <int>, mostShutoutsOneSeason <int>,
    ## #   mostShutoutsSeasonIds <chr>, mostWinsOneSeason <int>,
    ## #   mostWinsSeasonIds <chr>, overtimeLosses <int>, playerId <int>,
    ## #   positionCode <chr>, rookieGamesPlayed <int>, rookieShutouts <int>,
    ## #   rookieWins <int>, seasons <int>, shutouts <int>, ties <int>, wins <int>
``` r
skater_record <- function(ID){
  skater_url <- paste0("https://records.nhl.com/site/api/franchise-skater-records?cayenneExp=franchiseId=", ID)
  get_skater <- GET(skater_url)
  txt_skater <- content(get_skater, "text")
  json_skater <- fromJSON(txt_skater, flatten = TRUE)
  return(as_tibble(json_skater$data))
}

skater_record(24)
```

    ## No encoding supplied: defaulting to UTF-8.

    ## # A tibble: 509 x 30
    ##       id activePlayer assists firstName franchiseId franchiseName gameTypeId
    ##    <int> <lgl>          <int> <chr>           <int> <chr>              <int>
    ##  1 16910 FALSE            361 Calle              24 Washington C~          2
    ##  2 16982 TRUE             572 Alex               24 Washington C~          2
    ##  3 17011 TRUE             684 Nicklas            24 Washington C~          2
    ##  4 17021 FALSE            375 Dale               24 Washington C~          2
    ##  5 17075 FALSE            249 Dennis             24 Washington C~          2
    ##  6 17106 FALSE             42 Alan               24 Washington C~          2
    ##  7 17158 FALSE            392 Mike               24 Washington C~          2
    ##  8 17179 FALSE            259 Larry              24 Washington C~          2
    ##  9 17250 FALSE              0 Keith              24 Washington C~          2
    ## 10 17255 FALSE             98 Greg               24 Washington C~          2
    ## # ... with 499 more rows, and 23 more variables: gamesPlayed <int>,
    ## #   goals <int>, lastName <chr>, mostAssistsGameDates <chr>,
    ## #   mostAssistsOneGame <int>, mostAssistsOneSeason <int>,
    ## #   mostAssistsSeasonIds <chr>, mostGoalsGameDates <chr>,
    ## #   mostGoalsOneGame <int>, mostGoalsOneSeason <int>, mostGoalsSeasonIds <chr>,
    ## #   mostPenaltyMinutesOneSeason <int>, mostPenaltyMinutesSeasonIds <chr>,
    ## #   mostPointsGameDates <chr>, mostPointsOneGame <int>,
    ## #   mostPointsOneSeason <int>, mostPointsSeasonIds <chr>, penaltyMinutes <int>,
    ## #   playerId <int>, points <int>, positionCode <chr>, rookiePoints <int>,
…
wrapper("/franchise")
```

    ## No encoding supplied: defaulting to UTF-8.

    ## # A tibble: 38 x 6
    ##       id firstSeasonId lastSeasonId mostRecentTeamId teamCommonName
    ##    <int>         <int>        <int>            <int> <chr>         
    ##  1     1      19171918           NA                8 Canadiens     
    ##  2     2      19171918     19171918               41 Wanderers     
    ##  3     3      19171918     19341935               45 Eagles        
    ##  4     4      19191920     19241925               37 Tigers        
    ##  5     5      19171918           NA               10 Maple Leafs   
    ##  6     6      19241925           NA                6 Bruins        
    ##  7     7      19241925     19371938               43 Maroons       
    ##  8     8      19251926     19411942               51 Americans     
    ##  9     9      19251926     19301931               39 Quakers       
    ## 10    10      19261927           NA                3 Rangers       
    ## # ... with 28 more rows, and 1 more variable: teamPlaceName <chr>
…
## Analytics

``` r
#Join data 
right_join(franchise_team(), goalie_record(24), by= c("teamName" = "franchiseName"))
```

    ## No encoding supplied: defaulting to UTF-8.
    ## No encoding supplied: defaulting to UTF-8.

    ## # A tibble: 60 x 58
    ##     id.x activeFranchise firstSeasonId franchiseId.x gameTypeId.x gamesPlayed.x
    ##    <int>           <int>         <int>         <int>        <int>         <int>
    ##  1    29               1      19741975            24            2          3577
    ##  2    29               1      19741975            24            2          3577
    ##  3    29               1      19741975            24            2          3577
    ##  4    29               1      19741975            24            2          3577
    ##  5    29               1      19741975            24            2          3577
    ##  6    29               1      19741975            24            2          3577
    ##  7    29               1      19741975            24            2          3577
    ##  8    29               1      19741975            24            2          3577
    ##  9    29               1      19741975            24            2          3577
    ## 10    29               1      19741975            24            2          3577
    ## # ... with 50 more rows, and 52 more variables: goalsAgainst <int>,
    ## #   goalsFor <int>, homeLosses <int>, homeOvertimeLosses <int>, homeTies <int>,
    ## #   homeWins <int>, lastSeasonId <int>, losses.x <int>, overtimeLosses.x <int>,
    ## #   penaltyMinutes <int>, pointPctg <dbl>, points <int>, roadLosses <int>,
    ## #   roadOvertimeLosses <int>, roadTies <int>, roadWins <int>,
    ## #   shootoutLosses <int>, shootoutWins <int>, shutouts.x <int>, teamId <int>,
    ## #   teamName <chr>, ties.x <int>, triCode <chr>, wins.x <int>, id.y <int>,
    ## #   activePlayer <lgl>, firstName <chr>, franchiseId.y <int>,
    ## #   gameTypeId.y <int>, gamesPlayed.y <int>, lastName <chr>, losses.y <int>,
…
``` r
#numerical summaries for quantitative data
franchise_team() %>% group_by(teamName) %>% summarise(regularandPostWins = sum(wins))
```

    ## No encoding supplied: defaulting to UTF-8.

    ## `summarise()` ungrouping output (override with `.groups` argument)

    ## # A tibble: 57 x 2
    ##    teamName                regularandPostWins
    ##    <chr>                                <int>
    ##  1 Anaheim Ducks                         1062
    ##  2 Arizona Coyotes                        194
    ##  3 Atlanta Flames                         270
    ##  4 Atlanta Thrashers                      342
    ##  5 Boston Bruins                         3534
    ##  6 Brooklyn Americans                      16
    ##  7 Buffalo Sabres                        1914
    ##  8 Calgary Flames                        1574
    ##  9 California Golden Seals                116
    ## 10 Carolina Hurricanes                    844
    ## # ... with 47 more rows
…
